-- Merging decision tree log ---
manifest
ADDED from /home/gabrielsardinha/ProjetoIntegrador/francisco-pena-projeto-final/OnionMassange/android/app/src/main/AndroidManifest.xml:1:1-26:12
INJECTED from /home/gabrielsardinha/ProjetoIntegrador/francisco-pena-projeto-final/OnionMassange/android/app/src/main/AndroidManifest.xml:1:1-26:12
INJECTED from /home/gabrielsardinha/ProjetoIntegrador/francisco-pena-projeto-final/OnionMassange/android/app/src/main/AndroidManifest.xml:1:1-26:12
INJECTED from /home/gabrielsardinha/ProjetoIntegrador/francisco-pena-projeto-final/OnionMassange/android/app/src/main/AndroidManifest.xml:1:1-26:12
MERGED from /home/gabrielsardinha/ProjetoIntegrador/francisco-pena-projeto-final/OnionMassange/android/app/src/main/AndroidManifest.xml:1:1-26:12
MERGED from [:react-native-gesture-handler] /home/gabrielsardinha/ProjetoIntegrador/francisco-pena-projeto-final/OnionMassange/node_modules/react-native-gesture-handler/android/build/intermediates/library_manifest/debug/AndroidManifest.xml:2:1-11:12
MERGED from [com.facebook.react:react-native:0.59.9] /home/gabrielsardinha/.gradle/caches/transforms-2/files-2.1/9b0b165923989bf64a24f0c34e65f49c/AndroidManifest.xml:2:1-13:12
MERGED from [com.android.support:appcompat-v7:28.0.0] /home/gabrielsardinha/.gradle/caches/transforms-2/files-2.1/46ddd23944b404c8b45747d16c5a56f4/AndroidManifest.xml:17:1-22:12
MERGED from [com.android.support:support-fragment:28.0.0] /home/gabrielsardinha/.gradle/caches/transforms-2/files-2.1/aa6957cf70799be8c0a1014ec540aa5c/AndroidManifest.xml:17:1-22:12
MERGED from [com.android.support:animated-vector-drawable:28.0.0] /home/gabrielsardinha/.gradle/caches/transforms-2/files-2.1/0b8d68231317a45ca62c96f52ab17eb5/AndroidManifest.xml:17:1-22:12
MERGED from [com.android.support:support-core-ui:28.0.0] /home/gabrielsardinha/.gradle/caches/transforms-2/files-2.1/ccf32b032f43b9bfc906293f5dbefa02/AndroidManifest.xml:17:1-22:12
MERGED from [com.android.support:support-core-utils:28.0.0] /home/gabrielsardinha/.gradle/caches/transforms-2/files-2.1/75e79aa937a4a63012f20162e6a10034/AndroidManifest.xml:17:1-22:12
MERGED from [com.android.support:support-vector-drawable:28.0.0] /home/gabrielsardinha/.gradle/caches/transforms-2/files-2.1/778e6d153c22c4723b2a2e5cf0e5a60e/AndroidManifest.xml:17:1-22:12
MERGED from [com.android.support:loader:28.0.0] /home/gabrielsardinha/.gradle/caches/transforms-2/files-2.1/1fde3fe50cfcfc79fbf86e9efc1a217a/AndroidManifest.xml:17:1-22:12
MERGED from [com.android.support:viewpager:28.0.0] /home/gabrielsardinha/.gradle/caches/transforms-2/files-2.1/16199b2fff814fd10d7e26c23912e0c3/AndroidManifest.xml:17:1-22:12
MERGED from [com.android.support:coordinatorlayout:28.0.0] /home/gabrielsardinha/.gradle/caches/transforms-2/files-2.1/923006faa05874ccda9acceea5c60e4f/AndroidManifest.xml:17:1-22:12
MERGED from [com.android.support:drawerlayout:28.0.0] /home/gabrielsardinha/.gradle/caches/transforms-2/files-2.1/4ff931c8991b5de8601e012cc8e596a8/AndroidManifest.xml:17:1-22:12
MERGED from [com.android.support:slidingpanelayout:28.0.0] /home/gabrielsardinha/.gradle/caches/transforms-2/files-2.1/dc42aa741118ebfe678d6722b21511ed/AndroidManifest.xml:17:1-22:12
MERGED from [com.android.support:customview:28.0.0] /home/gabrielsardinha/.gradle/caches/transforms-2/files-2.1/eaa9d6ec70668e7d5612e0a486615bb7/AndroidManifest.xml:17:1-22:12
MERGED from [com.android.support:swiperefreshlayout:28.0.0] /home/gabrielsardinha/.gradle/caches/transforms-2/files-2.1/be22da862125d46b1b57f5e3a83ec4f4/AndroidManifest.xml:17:1-22:12
MERGED from [com.android.support:asynclayoutinflater:28.0.0] /home/gabrielsardinha/.gradle/caches/transforms-2/files-2.1/3fc191a4807766612c785202be4e28ce/AndroidManifest.xml:17:1-22:12
MERGED from [com.android.support:support-compat:28.0.0] /home/gabrielsardinha/.gradle/caches/transforms-2/files-2.1/1c27375d6a8b696d634ed97ac1f0ff4e/AndroidManifest.xml:17:1-24:12
MERGED from [com.android.support:versionedparcelable:28.0.0] /home/gabrielsardinha/.gradle/caches/transforms-2/files-2.1/188ac8956d9c360637766102bcaf67c8/AndroidManifest.xml:17:1-25:12
MERGED from [com.android.support:cursoradapter:28.0.0] /home/gabrielsardinha/.gradle/caches/transforms-2/files-2.1/4cbace87adec7f22751e3fa52f3cad9f/AndroidManifest.xml:17:1-22:12
MERGED from [android.arch.lifecycle:runtime:1.1.1] /home/gabrielsardinha/.gradle/caches/transforms-2/files-2.1/71699fd2165e6f9f6f58988476b04fdf/AndroidManifest.xml:17:1-22:12
MERGED from [com.android.support:documentfile:28.0.0] /home/gabrielsardinha/.gradle/caches/transforms-2/files-2.1/1b4d45cb990bcd140ce7de2b3f03c0cd/AndroidManifest.xml:17:1-22:12
MERGED from [com.android.support:localbroadcastmanager:28.0.0] /home/gabrielsardinha/.gradle/caches/transforms-2/files-2.1/88b69282750f9aa6cf0f28c02044ab0f/AndroidManifest.xml:17:1-22:12
MERGED from [com.android.support:print:28.0.0] /home/gabrielsardinha/.gradle/caches/transforms-2/files-2.1/2a2d424e29c248bafd86a75c756bae2e/AndroidManifest.xml:17:1-22:12
MERGED from [android.arch.lifecycle:viewmodel:1.1.1] /home/gabrielsardinha/.gradle/caches/transforms-2/files-2.1/d675d3d4001ce6fc591d8169e7d283ff/AndroidManifest.xml:17:1-22:12
MERGED from [android.arch.lifecycle:livedata:1.1.1] /home/gabrielsardinha/.gradle/caches/transforms-2/files-2.1/1965c594f616e2df2e938a0d6f6a5f8d/AndroidManifest.xml:17:1-22:12
MERGED from [android.arch.lifecycle:livedata-core:1.1.1] /home/gabrielsardinha/.gradle/caches/transforms-2/files-2.1/e33d39618d558358592e84883f2a92f8/AndroidManifest.xml:17:1-22:12
MERGED from [android.arch.core:runtime:1.1.1] /home/gabrielsardinha/.gradle/caches/transforms-2/files-2.1/ae4457f99f1228ecf83f2f2642f67bcc/AndroidManifest.xml:17:1-22:12
MERGED from [com.android.support:interpolator:28.0.0] /home/gabrielsardinha/.gradle/caches/transforms-2/files-2.1/1d36151ae5b4d6e8084b910f7fae1b61/AndroidManifest.xml:17:1-22:12
MERGED from [com.facebook.fresco:fresco:1.10.0] /home/gabrielsardinha/.gradle/caches/transforms-2/files-2.1/987796eb866a806d5a5be32f4232bc64/AndroidManifest.xml:2:1-9:12
MERGED from [com.facebook.fresco:imagepipeline-okhttp3:1.10.0] /home/gabrielsardinha/.gradle/caches/transforms-2/files-2.1/b71148b9eae009e698f1b2eeff19d103/AndroidManifest.xml:2:1-9:12
MERGED from [com.facebook.fresco:drawee:1.10.0] /home/gabrielsardinha/.gradle/caches/transforms-2/files-2.1/32e64321efbc94750da4c8fff5e8ce67/AndroidManifest.xml:2:1-9:12
MERGED from [com.facebook.fresco:imagepipeline:1.10.0] /home/gabrielsardinha/.gradle/caches/transforms-2/files-2.1/16a3b2cc022b40b8ad30554372398d5c/AndroidManifest.xml:2:1-9:12
MERGED from [com.facebook.fresco:imagepipeline-base:1.10.0] /home/gabrielsardinha/.gradle/caches/transforms-2/files-2.1/1d21bbe870812500a2bfa49315b9f2a6/AndroidManifest.xml:2:1-9:12
MERGED from [com.facebook.soloader:soloader:0.6.0] /home/gabrielsardinha/.gradle/caches/transforms-2/files-2.1/7d1a80a162adf0bf2bbd45f8627d1195/AndroidManifest.xml:2:1-13:12
MERGED from [com.facebook.fresco:fbcore:1.10.0] /home/gabrielsardinha/.gradle/caches/transforms-2/files-2.1/28ffb2e3b24adca3357c324b45ed89ca/AndroidManifest.xml:2:1-9:12
INJECTED from /home/gabrielsardinha/ProjetoIntegrador/francisco-pena-projeto-final/OnionMassange/android/app/src/debug/AndroidManifest.xml:2:1-8:12
INJECTED from /home/gabrielsardinha/ProjetoIntegrador/francisco-pena-projeto-final/OnionMassange/android/app/src/debug/AndroidManifest.xml:2:1-8:12
INJECTED from /home/gabrielsardinha/ProjetoIntegrador/francisco-pena-projeto-final/OnionMassange/android/app/src/debug/AndroidManifest.xml:2:1-8:12
	package
		ADDED from /home/gabrielsardinha/ProjetoIntegrador/francisco-pena-projeto-final/OnionMassange/android/app/src/main/AndroidManifest.xml:2:3-30
		INJECTED from /home/gabrielsardinha/ProjetoIntegrador/francisco-pena-projeto-final/OnionMassange/android/app/src/main/AndroidManifest.xml
		ADDED from /home/gabrielsardinha/ProjetoIntegrador/francisco-pena-projeto-final/OnionMassange/android/app/src/main/AndroidManifest.xml:2:3-30
		INJECTED from /home/gabrielsardinha/ProjetoIntegrador/francisco-pena-projeto-final/OnionMassange/android/app/src/debug/AndroidManifest.xml
	android:versionName
		INJECTED from /home/gabrielsardinha/ProjetoIntegrador/francisco-pena-projeto-final/OnionMassange/android/app/src/main/AndroidManifest.xml
		ADDED from /home/gabrielsardinha/ProjetoIntegrador/francisco-pena-projeto-final/OnionMassange/android/app/src/main/AndroidManifest.xml:1:1-26:12
		INJECTED from /home/gabrielsardinha/ProjetoIntegrador/francisco-pena-projeto-final/OnionMassange/android/app/src/debug/AndroidManifest.xml
	xmlns:tools
		ADDED from /home/gabrielsardinha/ProjetoIntegrador/francisco-pena-projeto-final/OnionMassange/android/app/src/debug/AndroidManifest.xml:3:5-51
	android:versionCode
		INJECTED from /home/gabrielsardinha/ProjetoIntegrador/francisco-pena-projeto-final/OnionMassange/android/app/src/main/AndroidManifest.xml
		ADDED from /home/gabrielsardinha/ProjetoIntegrador/francisco-pena-projeto-final/OnionMassange/android/app/src/main/AndroidManifest.xml:1:1-26:12
		INJECTED from /home/gabrielsardinha/ProjetoIntegrador/francisco-pena-projeto-final/OnionMassange/android/app/src/debug/AndroidManifest.xml
	xmlns:android
		ADDED from /home/gabrielsardinha/ProjetoIntegrador/francisco-pena-projeto-final/OnionMassange/android/app/src/main/AndroidManifest.xml:1:11-69
uses-permission#android.permission.INTERNET
ADDED from /home/gabrielsardinha/ProjetoIntegrador/francisco-pena-projeto-final/OnionMassange/android/app/src/main/AndroidManifest.xml:4:5-67
	android:name
		ADDED from /home/gabrielsardinha/ProjetoIntegrador/francisco-pena-projeto-final/OnionMassange/android/app/src/main/AndroidManifest.xml:4:22-64
application
ADDED from /home/gabrielsardinha/ProjetoIntegrador/francisco-pena-projeto-final/OnionMassange/android/app/src/main/AndroidManifest.xml:6:5-24:19
MERGED from /home/gabrielsardinha/ProjetoIntegrador/francisco-pena-projeto-final/OnionMassange/android/app/src/main/AndroidManifest.xml:6:5-24:19
MERGED from /home/gabrielsardinha/ProjetoIntegrador/francisco-pena-projeto-final/OnionMassange/android/app/src/main/AndroidManifest.xml:6:5-24:19
MERGED from [com.facebook.react:react-native:0.59.9] /home/gabrielsardinha/.gradle/caches/transforms-2/files-2.1/9b0b165923989bf64a24f0c34e65f49c/AndroidManifest.xml:11:5-20
MERGED from [com.facebook.react:react-native:0.59.9] /home/gabrielsardinha/.gradle/caches/transforms-2/files-2.1/9b0b165923989bf64a24f0c34e65f49c/AndroidManifest.xml:11:5-20
MERGED from [com.android.support:support-compat:28.0.0] /home/gabrielsardinha/.gradle/caches/transforms-2/files-2.1/1c27375d6a8b696d634ed97ac1f0ff4e/AndroidManifest.xml:22:5-94
MERGED from [com.android.support:support-compat:28.0.0] /home/gabrielsardinha/.gradle/caches/transforms-2/files-2.1/1c27375d6a8b696d634ed97ac1f0ff4e/AndroidManifest.xml:22:5-94
MERGED from [com.android.support:versionedparcelable:28.0.0] /home/gabrielsardinha/.gradle/caches/transforms-2/files-2.1/188ac8956d9c360637766102bcaf67c8/AndroidManifest.xml:22:5-23:19
MERGED from [com.android.support:versionedparcelable:28.0.0] /home/gabrielsardinha/.gradle/caches/transforms-2/files-2.1/188ac8956d9c360637766102bcaf67c8/AndroidManifest.xml:22:5-23:19
MERGED from [com.facebook.soloader:soloader:0.6.0] /home/gabrielsardinha/.gradle/caches/transforms-2/files-2.1/7d1a80a162adf0bf2bbd45f8627d1195/AndroidManifest.xml:11:5-20
MERGED from [com.facebook.soloader:soloader:0.6.0] /home/gabrielsardinha/.gradle/caches/transforms-2/files-2.1/7d1a80a162adf0bf2bbd45f8627d1195/AndroidManifest.xml:11:5-20
	android:appComponentFactory
		ADDED from [com.android.support:support-compat:28.0.0] /home/gabrielsardinha/.gradle/caches/transforms-2/files-2.1/1c27375d6a8b696d634ed97ac1f0ff4e/AndroidManifest.xml:22:18-91
	android:label
		ADDED from /home/gabrielsardinha/ProjetoIntegrador/francisco-pena-projeto-final/OnionMassange/android/app/src/main/AndroidManifest.xml:8:7-39
		ADDED from /home/gabrielsardinha/ProjetoIntegrador/francisco-pena-projeto-final/OnionMassange/android/app/src/main/AndroidManifest.xml:8:7-39
	tools:ignore
		ADDED from /home/gabrielsardinha/ProjetoIntegrador/francisco-pena-projeto-final/OnionMassange/android/app/src/debug/AndroidManifest.xml:7:75-114
	android:roundIcon
		ADDED from /home/gabrielsardinha/ProjetoIntegrador/francisco-pena-projeto-final/OnionMassange/android/app/src/main/AndroidManifest.xml:10:7-52
		ADDED from /home/gabrielsardinha/ProjetoIntegrador/francisco-pena-projeto-final/OnionMassange/android/app/src/main/AndroidManifest.xml:10:7-52
	tools:targetApi
		ADDED from /home/gabrielsardinha/ProjetoIntegrador/francisco-pena-projeto-final/OnionMassange/android/app/src/debug/AndroidManifest.xml:7:54-74
	android:icon
		ADDED from /home/gabrielsardinha/ProjetoIntegrador/francisco-pena-projeto-final/OnionMassange/android/app/src/main/AndroidManifest.xml:9:7-41
		ADDED from /home/gabrielsardinha/ProjetoIntegrador/francisco-pena-projeto-final/OnionMassange/android/app/src/main/AndroidManifest.xml:9:7-41
	android:allowBackup
		ADDED from /home/gabrielsardinha/ProjetoIntegrador/francisco-pena-projeto-final/OnionMassange/android/app/src/main/AndroidManifest.xml:11:7-34
		ADDED from /home/gabrielsardinha/ProjetoIntegrador/francisco-pena-projeto-final/OnionMassange/android/app/src/main/AndroidManifest.xml:11:7-34
	android:theme
		ADDED from /home/gabrielsardinha/ProjetoIntegrador/francisco-pena-projeto-final/OnionMassange/android/app/src/main/AndroidManifest.xml:12:7-38
		ADDED from /home/gabrielsardinha/ProjetoIntegrador/francisco-pena-projeto-final/OnionMassange/android/app/src/main/AndroidManifest.xml:12:7-38
	android:usesCleartextTraffic
		ADDED from /home/gabrielsardinha/ProjetoIntegrador/francisco-pena-projeto-final/OnionMassange/android/app/src/debug/AndroidManifest.xml:7:18-53
	android:name
		ADDED from /home/gabrielsardinha/ProjetoIntegrador/francisco-pena-projeto-final/OnionMassange/android/app/src/main/AndroidManifest.xml:7:7-38
		ADDED from /home/gabrielsardinha/ProjetoIntegrador/francisco-pena-projeto-final/OnionMassange/android/app/src/main/AndroidManifest.xml:7:7-38
activity#com.onionmassange.MainActivity
ADDED from /home/gabrielsardinha/ProjetoIntegrador/francisco-pena-projeto-final/OnionMassange/android/app/src/main/AndroidManifest.xml:13:7-22:18
	android:label
		ADDED from /home/gabrielsardinha/ProjetoIntegrador/francisco-pena-projeto-final/OnionMassange/android/app/src/main/AndroidManifest.xml:15:9-41
	android:windowSoftInputMode
		ADDED from /home/gabrielsardinha/ProjetoIntegrador/francisco-pena-projeto-final/OnionMassange/android/app/src/main/AndroidManifest.xml:17:9-51
	android:configChanges
		ADDED from /home/gabrielsardinha/ProjetoIntegrador/francisco-pena-projeto-final/OnionMassange/android/app/src/main/AndroidManifest.xml:16:9-79
	android:name
		ADDED from /home/gabrielsardinha/ProjetoIntegrador/francisco-pena-projeto-final/OnionMassange/android/app/src/main/AndroidManifest.xml:14:9-37
intent-filter#action:name:android.intent.action.MAIN+category:name:android.intent.category.LAUNCHER
ADDED from /home/gabrielsardinha/ProjetoIntegrador/francisco-pena-projeto-final/OnionMassange/android/app/src/main/AndroidManifest.xml:18:9-21:25
action#android.intent.action.MAIN
ADDED from /home/gabrielsardinha/ProjetoIntegrador/francisco-pena-projeto-final/OnionMassange/android/app/src/main/AndroidManifest.xml:19:13-65
	android:name
		ADDED from /home/gabrielsardinha/ProjetoIntegrador/francisco-pena-projeto-final/OnionMassange/android/app/src/main/AndroidManifest.xml:19:21-62
category#android.intent.category.LAUNCHER
ADDED from /home/gabrielsardinha/ProjetoIntegrador/francisco-pena-projeto-final/OnionMassange/android/app/src/main/AndroidManifest.xml:20:13-73
	android:name
		ADDED from /home/gabrielsardinha/ProjetoIntegrador/francisco-pena-projeto-final/OnionMassange/android/app/src/main/AndroidManifest.xml:20:23-70
activity#com.facebook.react.devsupport.DevSettingsActivity
ADDED from /home/gabrielsardinha/ProjetoIntegrador/francisco-pena-projeto-final/OnionMassange/android/app/src/main/AndroidManifest.xml:23:7-84
	android:name
		ADDED from /home/gabrielsardinha/ProjetoIntegrador/francisco-pena-projeto-final/OnionMassange/android/app/src/main/AndroidManifest.xml:23:17-81
uses-sdk
INJECTED from /home/gabrielsardinha/ProjetoIntegrador/francisco-pena-projeto-final/OnionMassange/android/app/src/main/AndroidManifest.xml reason: use-sdk injection requested
INJECTED from /home/gabrielsardinha/ProjetoIntegrador/francisco-pena-projeto-final/OnionMassange/android/app/src/main/AndroidManifest.xml
INJECTED from /home/gabrielsardinha/ProjetoIntegrador/francisco-pena-projeto-final/OnionMassange/android/app/src/main/AndroidManifest.xml
MERGED from [:react-native-gesture-handler] /home/gabrielsardinha/ProjetoIntegrador/francisco-pena-projeto-final/OnionMassange/node_modules/react-native-gesture-handler/android/build/intermediates/library_manifest/debug/AndroidManifest.xml:7:5-9:41
MERGED from [:react-native-gesture-handler] /home/gabrielsardinha/ProjetoIntegrador/francisco-pena-projeto-final/OnionMassange/node_modules/react-native-gesture-handler/android/build/intermediates/library_manifest/debug/AndroidManifest.xml:7:5-9:41
MERGED from [com.facebook.react:react-native:0.59.9] /home/gabrielsardinha/.gradle/caches/transforms-2/files-2.1/9b0b165923989bf64a24f0c34e65f49c/AndroidManifest.xml:7:5-9:41
MERGED from [com.facebook.react:react-native:0.59.9] /home/gabrielsardinha/.gradle/caches/transforms-2/files-2.1/9b0b165923989bf64a24f0c34e65f49c/AndroidManifest.xml:7:5-9:41
MERGED from [com.android.support:appcompat-v7:28.0.0] /home/gabrielsardinha/.gradle/caches/transforms-2/files-2.1/46ddd23944b404c8b45747d16c5a56f4/AndroidManifest.xml:20:5-44
MERGED from [com.android.support:appcompat-v7:28.0.0] /home/gabrielsardinha/.gradle/caches/transforms-2/files-2.1/46ddd23944b404c8b45747d16c5a56f4/AndroidManifest.xml:20:5-44
MERGED from [com.android.support:support-fragment:28.0.0] /home/gabrielsardinha/.gradle/caches/transforms-2/files-2.1/aa6957cf70799be8c0a1014ec540aa5c/AndroidManifest.xml:20:5-44
MERGED from [com.android.support:support-fragment:28.0.0] /home/gabrielsardinha/.gradle/caches/transforms-2/files-2.1/aa6957cf70799be8c0a1014ec540aa5c/AndroidManifest.xml:20:5-44
MERGED from [com.android.support:animated-vector-drawable:28.0.0] /home/gabrielsardinha/.gradle/caches/transforms-2/files-2.1/0b8d68231317a45ca62c96f52ab17eb5/AndroidManifest.xml:20:5-44
MERGED from [com.android.support:animated-vector-drawable:28.0.0] /home/gabrielsardinha/.gradle/caches/transforms-2/files-2.1/0b8d68231317a45ca62c96f52ab17eb5/AndroidManifest.xml:20:5-44
MERGED from [com.android.support:support-core-ui:28.0.0] /home/gabrielsardinha/.gradle/caches/transforms-2/files-2.1/ccf32b032f43b9bfc906293f5dbefa02/AndroidManifest.xml:20:5-44
MERGED from [com.android.support:support-core-ui:28.0.0] /home/gabrielsardinha/.gradle/caches/transforms-2/files-2.1/ccf32b032f43b9bfc906293f5dbefa02/AndroidManifest.xml:20:5-44
MERGED from [com.android.support:support-core-utils:28.0.0] /home/gabrielsardinha/.gradle/caches/transforms-2/files-2.1/75e79aa937a4a63012f20162e6a10034/AndroidManifest.xml:20:5-44
MERGED from [com.android.support:support-core-utils:28.0.0] /home/gabrielsardinha/.gradle/caches/transforms-2/files-2.1/75e79aa937a4a63012f20162e6a10034/AndroidManifest.xml:20:5-44
MERGED from [com.android.support:support-vector-drawable:28.0.0] /home/gabrielsardinha/.gradle/caches/transforms-2/files-2.1/778e6d153c22c4723b2a2e5cf0e5a60e/AndroidManifest.xml:20:5-44
MERGED from [com.android.support:support-vector-drawable:28.0.0] /home/gabrielsardinha/.gradle/caches/transforms-2/files-2.1/778e6d153c22c4723b2a2e5cf0e5a60e/AndroidManifest.xml:20:5-44
MERGED from [com.android.support:loader:28.0.0] /home/gabrielsardinha/.gradle/caches/transforms-2/files-2.1/1fde3fe50cfcfc79fbf86e9efc1a217a/AndroidManifest.xml:20:5-44
MERGED from [com.android.support:loader:28.0.0] /home/gabrielsardinha/.gradle/caches/transforms-2/files-2.1/1fde3fe50cfcfc79fbf86e9efc1a217a/AndroidManifest.xml:20:5-44
MERGED from [com.android.support:viewpager:28.0.0] /home/gabrielsardinha/.gradle/caches/transforms-2/files-2.1/16199b2fff814fd10d7e26c23912e0c3/AndroidManifest.xml:20:5-44
MERGED from [com.android.support:viewpager:28.0.0] /home/gabrielsardinha/.gradle/caches/transforms-2/files-2.1/16199b2fff814fd10d7e26c23912e0c3/AndroidManifest.xml:20:5-44
MERGED from [com.android.support:coordinatorlayout:28.0.0] /home/gabrielsardinha/.gradle/caches/transforms-2/files-2.1/923006faa05874ccda9acceea5c60e4f/AndroidManifest.xml:20:5-44
MERGED from [com.android.support:coordinatorlayout:28.0.0] /home/gabrielsardinha/.gradle/caches/transforms-2/files-2.1/923006faa05874ccda9acceea5c60e4f/AndroidManifest.xml:20:5-44
MERGED from [com.android.support:drawerlayout:28.0.0] /home/gabrielsardinha/.gradle/caches/transforms-2/files-2.1/4ff931c8991b5de8601e012cc8e596a8/AndroidManifest.xml:20:5-44
MERGED from [com.android.support:drawerlayout:28.0.0] /home/gabrielsardinha/.gradle/caches/transforms-2/files-2.1/4ff931c8991b5de8601e012cc8e596a8/AndroidManifest.xml:20:5-44
MERGED from [com.android.support:slidingpanelayout:28.0.0] /home/gabrielsardinha/.gradle/caches/transforms-2/files-2.1/dc42aa741118ebfe678d6722b21511ed/AndroidManifest.xml:20:5-44
MERGED from [com.android.support:slidingpanelayout:28.0.0] /home/gabrielsardinha/.gradle/caches/transforms-2/files-2.1/dc42aa741118ebfe678d6722b21511ed/AndroidManifest.xml:20:5-44
MERGED from [com.android.support:customview:28.0.0] /home/gabrielsardinha/.gradle/caches/transforms-2/files-2.1/eaa9d6ec70668e7d5612e0a486615bb7/AndroidManifest.xml:20:5-44
MERGED from [com.android.support:customview:28.0.0] /home/gabrielsardinha/.gradle/caches/transforms-2/files-2.1/eaa9d6ec70668e7d5612e0a486615bb7/AndroidManifest.xml:20:5-44
MERGED from [com.android.support:swiperefreshlayout:28.0.0] /home/gabrielsardinha/.gradle/caches/transforms-2/files-2.1/be22da862125d46b1b57f5e3a83ec4f4/AndroidManifest.xml:20:5-44
MERGED from [com.android.support:swiperefreshlayout:28.0.0] /home/gabrielsardinha/.gradle/caches/transforms-2/files-2.1/be22da862125d46b1b57f5e3a83ec4f4/AndroidManifest.xml:20:5-44
MERGED from [com.android.support:asynclayoutinflater:28.0.0] /home/gabrielsardinha/.gradle/caches/transforms-2/files-2.1/3fc191a4807766612c785202be4e28ce/AndroidManifest.xml:20:5-44
MERGED from [com.android.support:asynclayoutinflater:28.0.0] /home/gabrielsardinha/.gradle/caches/transforms-2/files-2.1/3fc191a4807766612c785202be4e28ce/AndroidManifest.xml:20:5-44
MERGED from [com.android.support:support-compat:28.0.0] /home/gabrielsardinha/.gradle/caches/transforms-2/files-2.1/1c27375d6a8b696d634ed97ac1f0ff4e/AndroidManifest.xml:20:5-44
MERGED from [com.android.support:support-compat:28.0.0] /home/gabrielsardinha/.gradle/caches/transforms-2/files-2.1/1c27375d6a8b696d634ed97ac1f0ff4e/AndroidManifest.xml:20:5-44
MERGED from [com.android.support:versionedparcelable:28.0.0] /home/gabrielsardinha/.gradle/caches/transforms-2/files-2.1/188ac8956d9c360637766102bcaf67c8/AndroidManifest.xml:20:5-44
MERGED from [com.android.support:versionedparcelable:28.0.0] /home/gabrielsardinha/.gradle/caches/transforms-2/files-2.1/188ac8956d9c360637766102bcaf67c8/AndroidManifest.xml:20:5-44
MERGED from [com.android.support:cursoradapter:28.0.0] /home/gabrielsardinha/.gradle/caches/transforms-2/files-2.1/4cbace87adec7f22751e3fa52f3cad9f/AndroidManifest.xml:20:5-44
MERGED from [com.android.support:cursoradapter:28.0.0] /home/gabrielsardinha/.gradle/caches/transforms-2/files-2.1/4cbace87adec7f22751e3fa52f3cad9f/AndroidManifest.xml:20:5-44
MERGED from [android.arch.lifecycle:runtime:1.1.1] /home/gabrielsardinha/.gradle/caches/transforms-2/files-2.1/71699fd2165e6f9f6f58988476b04fdf/AndroidManifest.xml:20:5-44
MERGED from [android.arch.lifecycle:runtime:1.1.1] /home/gabrielsardinha/.gradle/caches/transforms-2/files-2.1/71699fd2165e6f9f6f58988476b04fdf/AndroidManifest.xml:20:5-44
MERGED from [com.android.support:documentfile:28.0.0] /home/gabrielsardinha/.gradle/caches/transforms-2/files-2.1/1b4d45cb990bcd140ce7de2b3f03c0cd/AndroidManifest.xml:20:5-44
MERGED from [com.android.support:documentfile:28.0.0] /home/gabrielsardinha/.gradle/caches/transforms-2/files-2.1/1b4d45cb990bcd140ce7de2b3f03c0cd/AndroidManifest.xml:20:5-44
MERGED from [com.android.support:localbroadcastmanager:28.0.0] /home/gabrielsardinha/.gradle/caches/transforms-2/files-2.1/88b69282750f9aa6cf0f28c02044ab0f/AndroidManifest.xml:20:5-44
MERGED from [com.android.support:localbroadcastmanager:28.0.0] /home/gabrielsardinha/.gradle/caches/transforms-2/files-2.1/88b69282750f9aa6cf0f28c02044ab0f/AndroidManifest.xml:20:5-44
MERGED from [com.android.support:print:28.0.0] /home/gabrielsardinha/.gradle/caches/transforms-2/files-2.1/2a2d424e29c248bafd86a75c756bae2e/AndroidManifest.xml:20:5-44
MERGED from [com.android.support:print:28.0.0] /home/gabrielsardinha/.gradle/caches/transforms-2/files-2.1/2a2d424e29c248bafd86a75c756bae2e/AndroidManifest.xml:20:5-44
MERGED from [android.arch.lifecycle:viewmodel:1.1.1] /home/gabrielsardinha/.gradle/caches/transforms-2/files-2.1/d675d3d4001ce6fc591d8169e7d283ff/AndroidManifest.xml:20:5-44
MERGED from [android.arch.lifecycle:viewmodel:1.1.1] /home/gabrielsardinha/.gradle/caches/transforms-2/files-2.1/d675d3d4001ce6fc591d8169e7d283ff/AndroidManifest.xml:20:5-44
MERGED from [android.arch.lifecycle:livedata:1.1.1] /home/gabrielsardinha/.gradle/caches/transforms-2/files-2.1/1965c594f616e2df2e938a0d6f6a5f8d/AndroidManifest.xml:20:5-44
MERGED from [android.arch.lifecycle:livedata:1.1.1] /home/gabrielsardinha/.gradle/caches/transforms-2/files-2.1/1965c594f616e2df2e938a0d6f6a5f8d/AndroidManifest.xml:20:5-44
MERGED from [android.arch.lifecycle:livedata-core:1.1.1] /home/gabrielsardinha/.gradle/caches/transforms-2/files-2.1/e33d39618d558358592e84883f2a92f8/AndroidManifest.xml:20:5-44
MERGED from [android.arch.lifecycle:livedata-core:1.1.1] /home/gabrielsardinha/.gradle/caches/transforms-2/files-2.1/e33d39618d558358592e84883f2a92f8/AndroidManifest.xml:20:5-44
MERGED from [android.arch.core:runtime:1.1.1] /home/gabrielsardinha/.gradle/caches/transforms-2/files-2.1/ae4457f99f1228ecf83f2f2642f67bcc/AndroidManifest.xml:20:5-44
MERGED from [android.arch.core:runtime:1.1.1] /home/gabrielsardinha/.gradle/caches/transforms-2/files-2.1/ae4457f99f1228ecf83f2f2642f67bcc/AndroidManifest.xml:20:5-44
MERGED from [com.android.support:interpolator:28.0.0] /home/gabrielsardinha/.gradle/caches/transforms-2/files-2.1/1d36151ae5b4d6e8084b910f7fae1b61/AndroidManifest.xml:20:5-44
MERGED from [com.android.support:interpolator:28.0.0] /home/gabrielsardinha/.gradle/caches/transforms-2/files-2.1/1d36151ae5b4d6e8084b910f7fae1b61/AndroidManifest.xml:20:5-44
MERGED from [com.facebook.fresco:fresco:1.10.0] /home/gabrielsardinha/.gradle/caches/transforms-2/files-2.1/987796eb866a806d5a5be32f4232bc64/AndroidManifest.xml:5:5-7:41
MERGED from [com.facebook.fresco:fresco:1.10.0] /home/gabrielsardinha/.gradle/caches/transforms-2/files-2.1/987796eb866a806d5a5be32f4232bc64/AndroidManifest.xml:5:5-7:41
MERGED from [com.facebook.fresco:imagepipeline-okhttp3:1.10.0] /home/gabrielsardinha/.gradle/caches/transforms-2/files-2.1/b71148b9eae009e698f1b2eeff19d103/AndroidManifest.xml:5:5-7:41
MERGED from [com.facebook.fresco:imagepipeline-okhttp3:1.10.0] /home/gabrielsardinha/.gradle/caches/transforms-2/files-2.1/b71148b9eae009e698f1b2eeff19d103/AndroidManifest.xml:5:5-7:41
MERGED from [com.facebook.fresco:drawee:1.10.0] /home/gabrielsardinha/.gradle/caches/transforms-2/files-2.1/32e64321efbc94750da4c8fff5e8ce67/AndroidManifest.xml:5:5-7:41
MERGED from [com.facebook.fresco:drawee:1.10.0] /home/gabrielsardinha/.gradle/caches/transforms-2/files-2.1/32e64321efbc94750da4c8fff5e8ce67/AndroidManifest.xml:5:5-7:41
MERGED from [com.facebook.fresco:imagepipeline:1.10.0] /home/gabrielsardinha/.gradle/caches/transforms-2/files-2.1/16a3b2cc022b40b8ad30554372398d5c/AndroidManifest.xml:5:5-7:41
MERGED from [com.facebook.fresco:imagepipeline:1.10.0] /home/gabrielsardinha/.gradle/caches/transforms-2/files-2.1/16a3b2cc022b40b8ad30554372398d5c/AndroidManifest.xml:5:5-7:41
MERGED from [com.facebook.fresco:imagepipeline-base:1.10.0] /home/gabrielsardinha/.gradle/caches/transforms-2/files-2.1/1d21bbe870812500a2bfa49315b9f2a6/AndroidManifest.xml:5:5-7:41
MERGED from [com.facebook.fresco:imagepipeline-base:1.10.0] /home/gabrielsardinha/.gradle/caches/transforms-2/files-2.1/1d21bbe870812500a2bfa49315b9f2a6/AndroidManifest.xml:5:5-7:41
MERGED from [com.facebook.soloader:soloader:0.6.0] /home/gabrielsardinha/.gradle/caches/transforms-2/files-2.1/7d1a80a162adf0bf2bbd45f8627d1195/AndroidManifest.xml:7:5-9:41
MERGED from [com.facebook.soloader:soloader:0.6.0] /home/gabrielsardinha/.gradle/caches/transforms-2/files-2.1/7d1a80a162adf0bf2bbd45f8627d1195/AndroidManifest.xml:7:5-9:41
MERGED from [com.facebook.fresco:fbcore:1.10.0] /home/gabrielsardinha/.gradle/caches/transforms-2/files-2.1/28ffb2e3b24adca3357c324b45ed89ca/AndroidManifest.xml:5:5-7:41
MERGED from [com.facebook.fresco:fbcore:1.10.0] /home/gabrielsardinha/.gradle/caches/transforms-2/files-2.1/28ffb2e3b24adca3357c324b45ed89ca/AndroidManifest.xml:5:5-7:41
INJECTED from /home/gabrielsardinha/ProjetoIntegrador/francisco-pena-projeto-final/OnionMassange/android/app/src/debug/AndroidManifest.xml
INJECTED from /home/gabrielsardinha/ProjetoIntegrador/francisco-pena-projeto-final/OnionMassange/android/app/src/debug/AndroidManifest.xml
	android:targetSdkVersion
		INJECTED from /home/gabrielsardinha/ProjetoIntegrador/francisco-pena-projeto-final/OnionMassange/android/app/src/main/AndroidManifest.xml
		INJECTED from /home/gabrielsardinha/ProjetoIntegrador/francisco-pena-projeto-final/OnionMassange/android/app/src/debug/AndroidManifest.xml
	android:minSdkVersion
		INJECTED from /home/gabrielsardinha/ProjetoIntegrador/francisco-pena-projeto-final/OnionMassange/android/app/src/main/AndroidManifest.xml
		INJECTED from /home/gabrielsardinha/ProjetoIntegrador/francisco-pena-projeto-final/OnionMassange/android/app/src/debug/AndroidManifest.xml
uses-permission#android.permission.SYSTEM_ALERT_WINDOW
ADDED from /home/gabrielsardinha/ProjetoIntegrador/francisco-pena-projeto-final/OnionMassange/android/app/src/debug/AndroidManifest.xml:5:5-77
	android:name
		ADDED from /home/gabrielsardinha/ProjetoIntegrador/francisco-pena-projeto-final/OnionMassange/android/app/src/debug/AndroidManifest.xml:5:22-75
